******************************************************************************** 
PACKAGE-LOG: 10:33:00 
NOTICE: Do not post to public sites or forums 
******************************************************************************** 
duplicator: 0.4.3 
wordpress: 3.5.1 
php: 5.3.22 
php sapi: cgi-fcgi 
server: Apache 
browser: Mozilla/5.0 (Windows NT 6.1; WOW64) AppleWebKit/537.31 (KHTML, like Gecko) Chrome/26.0.1410.64 Safari/537.31 
package name: d2m5y13_raysummit 
php_max_time: from=0 to=5000 
php_max_memory: from=128M to=5000M 
mysql wait_timeout:5000 
******************************************************************************** 
SQL SCRIPT 
******************************************************************************** 
wp_commentmeta (2) 
wp_comments (1) 
wp_duplicator (2) 
wp_links (0) 
wp_new_royalsliders (0) 
wp_options (196) 
wp_postmeta (186) 
wp_posts (244) 
wp_spidercalendar_calendar (0) 
wp_spidercalendar_event (0) 
wp_spidercalendar_theme (11) 
wp_spidercalendar_widget_theme (11) 
wp_term_relationships (10) 
wp_term_taxonomy (3) 
wp_terms (3) 
wp_usermeta (19) 
wp_users (1) 
wp_xyz_cfm_form (2) 
wp_xyz_cfm_form_elements (13) 
wp_xyz_cfm_sender_email_address (0) 
SQL CREATED: /home/oxdzb651/public_html/raysummit.com/wp-snapshots/5182e99c9e9372827_d2m5y13_raysummit_database.sql 
SQL TOTAL RUNTIME: 0.1683 sec. 
******************************************************************************** 
ZIP ARCHIVE: 
******************************************************************************** 
ARCHIVE FOLDER: /home/oxdzb651/public_html/raysummit.com 
ARCHIVE FILE:   /home/oxdzb651/public_html/raysummit.com/wp-snapshots/5182e99c9e9372827_d2m5y13_raysummit_package.zip 
FILTER EXTENSIONS:  '' 
FILTER DIRECTORIES: '' 
---------------------------------------- 
ZIPARCHIVE OPENED 
DATABASE.SQL ADDED TO ZIP: /home/oxdzb651/public_html/raysummit.com/wp-snapshots/5182e99c9e9372827_d2m5y13_raysummit_database.sql 
ARCHIVE INFO: ZipArchive Object
(
    [status] => 0
    [statusSys] => 0
    [numFiles] => 2358
    [filename] => /home/oxdzb651/public_html/raysummit.com/wp-snapshots/5182e99c9e9372827_d2m5y13_raysummit_package.zip
    [comment] => 
)
 
CLOSE RETURNED: '1' 
ZIP TOTAL RUNTIME: 4.4939 sec. 
ZIP FILE SIZE: 21.04MB 
RECORDED ARCHIVE ID: 3 
******************************************************************************** 
FINALIZATION ROUTINES: 
******************************************************************************** 
BUILDING INSTALLER FILE 
INSTALLER FILE BUILT 
MAKING INSTALLER FILE 
INSTALLER MADE: /home/oxdzb651/public_html/raysummit.com/wp-snapshots/5182e99c9e9372827_d2m5y13_raysummit_installer.php 
INSTALLER FILE COMPLETED 
COMPLETE PACKAGE RUNTIME: 4.8863 sec. 
******************************************************************************** 
DONE PROCESSING => d2m5y13_raysummit 10:33:05 
******************************************************************************** 
